[
    {
      "_id": 1,
      "name": "QATAR",
      "startingPoint": "Hyderabad",
      "startingTime": "12-16-1990",
      "endingPoint": "Kansas City",
      "durationHours": 33,
      "numPassengers": 12,
      "pilotId": 53151,
      "planeId": 631
      
    },
   {
    "_id": 2,
      "name": "EMIRATES",
      "startingPoint": "Kansas City",
      "startingTime": "07-01-1991",
      "endingPoint": "Hyderabad",
      "durationHours": 30,
      "numPassengers": 10,
      "pilotId": 1234,
      "planeId": 123 
   },
   {
    "_id": 3,
    "name": "AE",
    "startingPoint": "Houston",
    "startingTime": "03-10-1971",
    "endingPoint": "Hyderabad",
    "durationHours": 22,
    "numPassengers": 11,
    "pilotId": 998,
    "planeId": 556  
   },
   {
    "_id": 4,
      "name": "American",
      "startingPoint": "Banas",
      "startingTime": "07-05-1996",
      "endingPoint": "Idly",
      "durationHours": 24,
      "numPassengers": 9,
      "pilotId": 5555,
      "planeId": 313 
   }

  ]